{
  "autores": [
    {
      "id": 2,
      "nome": "Thomas Hobbes",
      "nacionalidade": "Britânico",
      "dataNascimento": "2021-01-05"
    },
    {
      "id": 3,
      "nome": "Immanuel Kant",
      "nacionalidade": "Prussiano",
      "dataNascimento": "1724-04-29"
    },
    {
      "nome": "Fiodor Dostoievsky",
      "nacionalidade": "Russo",
      "dataNascimento": "1826-11-11",
      "id": 7
    },
    {
      "nome": "Jose Saramago",
      "nacionalidade": "Portugues",
      "dataNascimento": "1922-11-16",
      "id": 10
    },
    {
      "nome": "René Descartes",
      "nacionalidade": "Francês",
      "dataNascimento": "1569-03-31",
      "id": 11
    },
    {
      "nome": "Charles Bukovsky",
      "nacionalidade": "Francês",
      "dataNascimento": "1920-08-16",
      "id": 15
    }
  ],
  "livros": [
    {
      "id": 1,
      "nome": "Discurso do Método",
      "genero": "Filosofia",
      "anoPublicacao": "1637",
      "editora": "LPM POCKET",
      "edicao": "6",
      "dataRecebimento": "2021-01-21",
      "nomeAutor": "Rene Descartes"
    },
    {
      "nome": "O Homem Duplicado",
      "nomeAutor": "Jose Saramago",
      "anoPublicacao": "1990",
      "genero": "Ficcção",
      "editora": "LMP Pocket",
      "edicao": "5",
      "dataRecebimento": "2021-01-21",
      "id": 4
    }
  ]
}